# Une loutre à la plage

Il était une fois une loutre
violette qui voulait aller 
jouer au ballon à la plage
mais elle n'avait pas d'amis
ni de ballon d'ailleurs.

Elle décida d'aller voir 
l'éléphant bleu son voisin.


## Contributeurs (dans l'ordre alphabétique)


* Fred
* Glenn R.
* Jérémy O
* Micka Petit
<<<<<<< HEAD
=======
<<<<<<< HEAD
* Raba M
=======
* Olivia Surget (+ graphiquement)
>>>>>>> refs/remotes/origin/master
>>>>>>> 905f04da0cba345ef29c7a16fbb98bae82e841cd
=======
* Olivia Surget (+ graphiquement)
* Raba M
* Stephane C.
* Rudy I.
>>>>>>> 06964660d7039f4e349c0f05dd9dba5a849da6e9
=======
* Olivia Surget (+ graphiquement)
* Paul
* Raba M
* Rudy
* Stephane C.

>>>>>>> 98d925a314c634e03d54e4c603388b2a820cbb77
